…
# Let's get all ports that can be matched to landing site from CONAPESCA's data
mex_ports |> 
  filter(!is.na(landing_site_id)) |> 
  select(port_name, landing_site_id, longitude, latitude)
#> # A tibble: 50 × 4
#>    port_name       landing_site_id longitude latitude
#>    <chr>           <chr>               <dbl>    <dbl>
#>  1 El SAUZAL       02A                 -117.     31.9
#>  2 ENSENADA        02B                 -117.     31.9
#>  3 ISLA CEDROS     02C                 -115.     28.1
#>  4 SAN FELLIPE     02D                 -115.     31.0
#>  5 GURRERO NEGRO   03L                 -114.     27.9
#>  6 A. LOPEZ MATEOS 03D                 -112.     25.2
#>  7 SAN CARLOS      03B                 -112.     24.8
#>  8 PUERTO ALCATRAZ 03C                 -112.     24.5
#>  9 CABO SAN LUCAS  03E                 -110.     22.9
#> 10 SANTA ROSALIA   03H                 -112.     27.3
#> # ℹ 40 more rows
```
…
